lab1_message_wave.vcd
$date
	Thu May  1 19:38:04 2025
$end
$version
	Icarus Verilog
$end
$timescale
	1ns
$end
$scope module message_tb $end
$var wire 8 ! message_out [7:0] $end
$var reg 1 " clk $end
$var reg 4 # msg_len [3:0] $end
$var reg 1 $ rst $end
$scope module unitut $end
$var wire 1 " clk $end
$var wire 4 % msg_len [3:0] $end
$var wire 1 $ rst $end
$var reg 3 & bit_index [2:0] $end
$var reg 4 ' index [3:0] $end
$var reg 8 ( message_out [7:0] $end
$upscope $end
$upscope $end
$scope module message_tb $end
$scope module unitut $end
$upscope $end
$upscope $end
$enddefinitions $end
$comment Show the parameter values. $end
$dumpall
$end
#0
$dumpvars
bx (
bx '
bx &
b1011 %
0$
b1011 #
0"
bx !
$end
#5
1"
#10
0"
#15
b0 !
b0 (
b0 &
b0 '
1"
1$
#20
0"
#25
b1 &
b1001000 !
b1001000 (
1"
0$
#30
0"
#35
b10 &
1"
#40
0"
#45
b11 &
1"
#50
0"
#55
b100 &
1"
#60
0"
#65
b101 &
1"
#70
0"
#75
b110 &
1"
#80
0"
#85
b111 &
1"
#90
0"
#95
b0 &
b1 '
1"
#100
0"
#105
b1 &
b1100101 !
b1100101 (
1"
#110
0"
#115
b10 &
1"
#120
0"
#125
b11 &
1"
#130
0"
#135
b100 &
1"
#140
0"
#145
b101 &
1"
#150
0"
#155
b110 &
1"
#160
0"
#165
b111 &
1"
#170
0"
#175
b0 &
b10 '
1"
#180
0"
#185
b1 &
b1101100 !
b1101100 (
1"
#190
0"
#195
b10 &
1"
#200
0"
#205
b11 &
1"
#210
0"
#215
b100 &
1"
#220
0"
#225
b101 &
1"
#230
0"
#235
b110 &
1"
#240
0"
#245
b111 &
1"
#250
0"
#255
b0 &
b11 '
1"
#260
0"
#265
b1 &
1"
#270
0"
#275
b10 &
1"
#280
0"
#285
b11 &
1"
#290
0"
#295
b100 &
1"
#300
0"
#305
b101 &
1"
#310
0"
#315
b110 &
1"
#320
0"
#325
b111 &
1"
#330
0"
#335
b0 &
b100 '
1"
#340
0"
#345
b1 &
b1101111 !
b1101111 (
1"
#350
0"
#355
b10 &
1"
#360
0"
#365
b11 &
1"
#370
0"
#375
b100 &
1"
#380
0"
#385
b101 &
1"
#390
0"
#395
b110 &
1"
#400
0"
#405
b111 &
1"
#410
0"
#415
b0 &
b101 '
1"
#420
0"
#425
b1 &
b100000 !
b100000 (
1"
#430
0"
#435
b10 &
1"
#440
0"
#445
b11 &
1"
#450
0"
#455
b100 &
1"
#460
0"
#465
b101 &
1"
#470
0"
#475
b110 &
1"
#480
0"
#485
b111 &
1"
#490
0"
#495
b0 &
b110 '
1"
#500
0"
#505
b1 &
b1010111 !
b1010111 (
1"
#510
0"
#515
b10 &
1"
#520
0"
#525
b11 &
1"
#530
0"
#535
b100 &
1"
#540
0"
#545
b101 &
1"
#550
0"
#555
b110 &
1"
#560
0"
#565
b111 &
1"
#570
0"
#575
b0 &
b111 '
1"
#580
0"
#585
b1 &
b1101111 !
b1101111 (
1"
#590
0"
#595
b10 &
1"
#600
0"
#605
b11 &
1"
#610
0"
#615
b100 &
1"
#620
0"
#625
b101 &
1"
#630
0"
#635
b110 &
1"
#640
0"
#645
b111 &
1"
#650
0"
#655
b0 &
b1000 '
1"
#660
0"
#665
b1 &
b1110010 !
b1110010 (
1"
#670
0"
#675
b10 &
1"
#680
0"
#685
b11 &
1"
#690
0"
#695
b100 &
1"
#700
0"
#705
b101 &
1"
#710
0"
#715
b110 &
1"
#720
0"
#725
b111 &
1"
#730
0"
#735
b0 &
b1001 '
1"
#740
0"
#745
b1 &
b1101100 !
b1101100 (
1"
#750
0"
#755
b10 &
1"
#760
0"
#765
b11 &
1"
#770
0"
#775
b100 &
1"
#780
0"
#785
b101 &
1"
#790
0"
#795
b110 &
1"
#800
0"
#805
b111 &
1"
#810
0"
#815
b0 &
b1010 '
1"
#820
0"
#825
b1 &
b1100100 !
b1100100 (
1"
#830
0"
#835
b10 &
1"
#840
0"
#845
b11 &
1"
#850
0"
#855
b100 &
1"
#860
0"
#865
b101 &
1"
#870
0"
#875
b110 &
1"
#880
0"
#885
b111 &
1"
#890
0"
#895
b0 &
b0 '
1"
#900
0"
#905
b1 &
b1001000 !
b1001000 (
1"
#910
0"
#915
b10 &
1"
#920
0"
#925
b11 &
1"
#930
0"
#935
b100 &
1"
#940
0"
#945
b101 &
1"
#950
0"
#955
b110 &
1"
#960
0"
#965
b111 &
1"
#970
0"
#975
b0 &
b1 '
1"
#980
0"
#985
b1 &
b1100101 !
b1100101 (
1"
#990
0"
#995
b10 &
1"
#1000
0"
#1005
b11 &
1"
#1010
0"
#1015
b100 &
1"
#1020
0"
#1025
b101 &
1"
#1030
0"
#1035
b110 &
1"
#1040
0"
#1045
b111 &
1"
#1050
0"
#1055
b0 &
b10 '
1"
#1060
0"
#1065
b1 &
b1101100 !
b1101100 (
1"
#1070
0"
#1075
b10 &
1"
#1080
0"
#1085
b11 &
1"
#1090
0"
#1095
b100 &
1"
#1100
0"
#1105
b101 &
1"
#1110
0"
#1115
b110 &
1"
#1120
0"
#1125
b111 &
1"
#1130
0"
#1135
b0 &
b11 '
1"
#1140
0"
#1145
b1 &
1"
#1150
0"
#1155
b10 &
1"
#1160
0"
#1165
b11 &
1"
#1170
0"
#1175
b100 &
1"
#1180
0"
#1185
b101 &
1"
#1190
0"
#1195
b110 &
1"
#1200
0"
#1205
b111 &
1"
#1210
0"
#1215
b0 &
b100 '
1"
#1220
0"
#1225
b1 &
b1101111 !
b1101111 (
1"
#1230
0"
#1235
b10 &
1"
#1240
0"
#1245
b11 &
1"
#1250
0"
#1255
b100 &
1"
#1260
0"
#1265
b101 &
1"
#1270
0"
#1275
b110 &
1"
#1280
0"
#1285
b111 &
1"
#1290
0"
#1295
b0 &
b101 '
1"
#1300
0"
#1305
b1 &
b100000 !
b100000 (
1"
#1310
0"
#1315
b10 &
1"
#1320
0"
#1325
b11 &
1"
#1330
0"
#1335
b100 &
1"
#1340
0"
#1345
b101 &
1"
#1350
0"
#1355
b110 &
1"
#1360
0"
#1365
b111 &
1"
#1370
0"
#1375
b0 &
b110 '
1"
#1380
0"
#1385
b1 &
b1010111 !
b1010111 (
1"
#1390
0"
#1395
b10 &
1"
#1400
0"
#1405
b11 &
1"
#1410
0"
#1415
b100 &
1"
#1420
0"
#1425
b101 &
1"
#1430
0"
#1435
b110 &
1"
#1440
0"
#1445
b111 &
1"
#1450
0"
#1455
b0 &
b111 '
1"
#1460
0"
#1465
b1 &
b1101111 !
b1101111 (
1"
#1470
0"
#1475
b10 &
1"
#1480
0"
#1485
b11 &
1"
#1490
0"
#1495
b100 &
1"
#1500
0"
#1505
b101 &
1"
#1510
0"
#1515
b110 &
1"
#1520
0"
#1525
b111 &
1"
