lab2_instruction_wave.vcd
$date
	Thu Jun 19 12:05:20 2025
$end
$version
	Icarus Verilog
$end
$timescale
	1ps
$end
$scope module instruction_output_tb $end
$var wire 32 ! frame [31:0] $end
$var parameter 32 " INSTR_COUNT $end
$var reg 1 # clk $end
$var reg 32 $ instruction_in [31:0] $end
$var reg 1 % rst $end
$var integer 32 & i [31:0] $end
$scope module uut $end
$var wire 1 # clk $end
$var wire 32 ' instruction_in [31:0] $end
$var wire 1 % rst $end
$var parameter 32 ( INSTR_COUNT $end
$var reg 5 ) addr [4:0] $end
$var reg 32 * frame [31:0] $end
$upscope $end
$upscope $end
$enddefinitions $end
$comment Show the parameter values. $end
$dumpall
b10001 (
b10001 "
$end
#0
$dumpvars
b0 *
b0 )
b0 '
bx &
1%
b0 $
0#
b0 !
$end
#15000
1#
#20000
b11110000001000010000000010010011 $
b11110000001000010000000010010011 '
b0 &
0%
#30000
b1100010010000100100011 $
b1100010010000100100011 '
b1 &
0#
#40000
b100101000001010010011 $
b100101000001010010011 '
b10 &
#45000
b1 )
b100101000001010010011 !
b100101000001010010011 *
1#
#50000
b10100010000001000100011 $
b10100010000001000100011 '
b11 &
#60000
b1000101000001010010011 $
b1000101000001010010011 '
b100 &
0#
#70000
b10100010000001010100011 $
b10100010000001010100011 '
b101 &
#75000
b10 )
b10100010000001010100011 !
b10100010000001010100011 *
1#
#80000
b1100101000001010010011 $
b1100101000001010010011 '
b110 &
#90000
b10100010000001100100011 $
b10100010000001100100011 '
b111 &
0#
#100000
b10000101000001010010011 $
b10000101000001010010011 '
b1000 &
#105000
b11 )
b10000101000001010010011 !
b10000101000001010010011 *
1#
#110000
b10100010000001110100011 $
b10100010000001110100011 '
b1001 &
#120000
b10000001100000011 $
b10000001100000011 '
b1010 &
0#
#130000
b10100000000001110010011 $
b10100000000001110010011 '
b1011 &
#135000
b100 )
b10100000000001110010011 !
b10100000000001110010011 *
1#
#140000
b11100110000011110110011 $
b11100110000011110110011 '
b1100 &
#150000
b11100100000010000001010100011 $
b11100100000010000001010100011 '
b1101 &
0#
#160000
b1100010010000010000011 $
b1100010010000010000011 '
b1110 &
#165000
b101 )
b1100010010000010000011 !
b1100010010000010000011 *
1#
#170000
b0 $
b0 '
b1111 &
#180000
bx $
bx '
b10000 &
0#
#190000
b10001 &
#195000
b110 )
bx !
bx *
1#
#210000
0#
#225000
b111 )
1#
#240000
0#
#255000
b1000 )
1#
#270000
0#
#285000
b1001 )
1#
