lab3_traffic_light_wave.vcd
$date
	Sat May  3 12:07:30 2025
$end
$version
	Icarus Verilog
$end
$timescale
	1ps
$end
$scope module traffic_light_tb $end
$var wire 1 ! red $end
$var wire 1 " orange $end
$var wire 1 # green $end
$var reg 1 $ clk $end
$var reg 1 % reset $end
$upscope $end
$scope module traffic_light_tb $end
$scope module uut $end
$var wire 1 $ clk $end
$var wire 1 % reset $end
$var parameter 32 & GREEN_TIME $end
$var parameter 32 ' ORANGE_TIME $end
$var parameter 32 ( RED_TIME $end
$var reg 1 # green $end
$var reg 2 ) next_state [1:0] $end
$var reg 1 " orange $end
$var reg 1 ! red $end
$var reg 2 * state [1:0] $end
$var integer 32 + counter [31:0] $end
$upscope $end
$upscope $end
$enddefinitions $end
$comment Show the parameter values. $end
$dumpall
b101 (
b10 '
b101 &
$end
#0
$dumpvars
b0 +
b0 *
b1 )
1%
0$
0#
0"
1!
$end
#5000
1$
#10000
0$
0%
#15000
b1 +
1$
#20000
0$
#25000
b10 +
1$
#30000
0$
#35000
b11 +
1$
#40000
0$
#45000
b100 +
1$
#50000
0$
#55000
b101 +
1$
#60000
0$
#65000
b10 )
1#
0!
b0 +
b1 *
1$
#70000
0$
#75000
b1 +
1$
#80000
0$
#85000
b10 +
1$
#90000
0$
#95000
b11 +
1$
#100000
0$
#105000
b100 +
1$
#110000
0$
#115000
b101 +
1$
#120000
0$
#125000
b0 )
1"
0#
b0 +
b10 *
1$
#130000
0$
#135000
b1 +
1$
#140000
0$
#145000
b10 +
1$
#150000
0$
#155000
b1 )
1!
0"
b0 +
b0 *
1$
#160000
0$
#165000
b1 +
1$
#170000
0$
#175000
b10 +
1$
#180000
0$
#185000
b11 +
1$
#190000
0$
#195000
b100 +
1$
#200000
0$
#205000
b101 +
1$
#210000
0$
#215000
b10 )
1#
0!
b0 +
b1 *
1$
#220000
0$
#225000
b1 +
1$
#230000
0$
#235000
b10 +
1$
#240000
0$
#245000
b11 +
1$
#250000
0$
#255000
b100 +
1$
#260000
0$
#265000
b101 +
1$
#270000
0$
#275000
b0 )
1"
0#
b0 +
b10 *
1$
#280000
0$
#285000
b1 +
1$
#290000
0$
#295000
b10 +
1$
#300000
0$
#305000
b1 )
1!
0"
b0 +
b0 *
1$
#310000
0$
#315000
b1 +
1$
#320000
0$
#325000
b10 +
1$
#330000
0$
#335000
b11 +
1$
#340000
0$
#345000
b100 +
1$
#350000
0$
#355000
b101 +
1$
#360000
0$
#365000
b10 )
1#
0!
b0 +
b1 *
1$
#370000
0$
#375000
b1 +
1$
#380000
0$
#385000
b10 +
1$
#390000
0$
#395000
b11 +
1$
#400000
0$
#405000
b100 +
1$
#410000
0$
#415000
b101 +
1$
#420000
0$
#425000
b0 )
1"
0#
b0 +
b10 *
1$
#430000
0$
#435000
b1 +
1$
#440000
0$
#445000
b10 +
1$
#450000
0$
#455000
b1 )
1!
0"
b0 +
b0 *
1$
#460000
0$
#465000
b1 +
1$
#470000
0$
#475000
b10 +
1$
#480000
0$
#485000
b11 +
1$
#490000
0$
#495000
b100 +
1$
#500000
0$
#505000
b101 +
1$
